{
    "manifest_version": 3,
    "name": "chatterly",
    "description": "chatterly is an online translation service ",
    "version": "1.0.0",
    "background": {
        "service_worker": "/js/background.js"
    },
    "action": {
        "default_popup": "popup.html"
    }
}