{
    "manifest_version": 3,
    "name": "site parser",
    "description": "site parser extension",
    "version": "1.0.0",
    "icons": {
        "128":"img/icon.png",
        "64":"img/icon.png",
        "32":"img/icon.png",
        "16":"img/icon.png"
    },
    "background": {
        "service_worker": "/js/background.js"
    },
    "action": {
        "default_popup": "popup.html"
    },
    "content_scripts": [
        {
          "matches": ["<all_urls>"],
          "js": ["js/rangyinputs-jquery-src.js","js/globals.js","js/content.js"],
          "css": []
        }
    ],
    "web_accessible_resources": [ 
        {
            "resources": [ 
                "img/icon.png",
                "css/content.css"
            ],
            "matches": ["<all_urls>"]
        }
    ],
    "permissions": [
        "tabs",
        "storage",
        "contextMenus"
      ]
}